Projet Analyse de données : Meteorite Landings
…
Projet Analyse de données : Meteorite Landings

Jonathan Ferreira

Carte du monde avec météorites.

On commence par récuperer le jeu de données dans une variable qu’on nommera didou.

didou <- read_csv(
    "Meteorite.csv")

print(didou, width = Inf)

## # A tibble: 45,716 x 10
##    name                   id nametype recclass    `mass (g)` fall 
##    <chr>               <dbl> <chr>    <chr>            <dbl> <chr>
##  1 Aachen                  1 Valid    L5                  21 Fell 
##  2 Aarhus                  2 Valid    H6                 720 Fell 
##  3 Abee                    6 Valid    EH4             107000 Fell 
##  4 Acapulco               10 Valid    Acapulcoite       1914 Fell 
##  5 Achiras               370 Valid    L6                 780 Fell 
##  6 Adhi Kot              379 Valid    EH4               4239 Fell 
##  7 Adzhi-Bogdo (stone)   390 Valid    LL3-6              910 Fell 
##  8 Agen                  392 Valid    H5               30000 Fell 
##  9 Aguada                398 Valid    L6                1620 Fell 
## 10 Aguila Blanca         417 Valid    L                 1440 Fell 
##    year                   reclat  reclong GeoLocation         
##    <chr>                   <dbl>    <dbl> <chr>               
##  1 01/01/1880 12:00:00 AM   50.8    6.08  (50.775, 6.08333)   
##  2 01/01/1951 12:00:00 AM   56.2   10.2   (56.18333, 10.23333)
##  3 01/01/1952 12:00:00 AM   54.2 -113     (54.21667, -113.0)  
##  4 01/01/1976 12:00:00 AM   16.9  -99.9   (16.88333, -99.9)   
##  5 01/01/1902 12:00:00 AM  -33.2  -65.0   (-33.16667, -64.95) 
##  6 01/01/1919 12:00:00 AM   32.1   71.8   (32.1, 71.8)        
##  7 01/01/1949 12:00:00 AM   44.8   95.2   (44.83333, 95.16667)
##  8 01/01/1814 12:00:00 AM   44.2    0.617 (44.21667, 0.61667) 
##  9 01/01/1930 12:00:00 AM  -31.6  -65.2   (-31.6, -65.23333)  
## 10 01/01/1920 12:00:00 AM  -30.9  -64.6   (-30.86667, -64.55) 
## # ... with 45,706 more rows
…
didou <- didou %>%
  mutate(year = as.integer((year(mdy_hms(didou$year))))) %>%
  mutate(year = ifelse(year > as.numeric(format(Sys.Date(), "%Y")), NA, year))

On utilisera le poids mass de la météorite comme taille du point.  On choisi aussi d’utiliser la composition de la météorite comme code couleur, il en existe 3 types : Stony Irony Stony-Iron. Dans la colonne recclass, uniquement le sous-type est donné, il en existe beaucoup trop pour que le graphique soit clair, on utilisera donc la fonction mutate pour créer une nouvelle colonne qui contient le type principal associé à chaque météorite.

didou <- didou %>%
  mutate(colorclass = ifelse(grepl("Stone|CI|CM|CO|CV|CK|CR|CH|CB|H|L|LL|EH|EL|R|K|URE|BRA|ACA|LOD|WIN|ANG|AUB|EUC|DIO|HOW|MOON|SHE|NAK|CHA|OPX|Diogenite|Eucrite", recclass), "Stony", NA)) %>%
  mutate(colorclass = ifelse(grepl("Iron|IAB|IIICD|IC|IIAB|IIC|IID|IIE|IIIAB|IIIE|IIIF|IVA|IVB", recclass), "Irony", colorclass)) %>%
  mutate(colorclass = ifelse(grepl("Pallasite|MES|ES|PAL|PP", recclass), "Stony-Iron", colorclass))

print(didou, width = Inf)

## # A tibble: 45,716 x 11
##    name                   id nametype recclass      mass fall   year reclat
##    <chr>               <dbl> <chr>    <chr>        <dbl> <chr> <int>  <dbl>
##  1 Aachen                  1 Valid    L5              21 Fell   1880   50.8
##  2 Aarhus                  2 Valid    H6             720 Fell   1951   56.2
##  3 Abee                    6 Valid    EH4         107000 Fell   1952   54.2
##  4 Acapulco               10 Valid    Acapulcoite   1914 Fell   1976   16.9
##  5 Achiras               370 Valid    L6             780 Fell   1902  -33.2
##  6 Adhi Kot              379 Valid    EH4           4239 Fell   1919   32.1
##  7 Adzhi-Bogdo (stone)   390 Valid    LL3-6          910 Fell   1949   44.8
##  8 Agen                  392 Valid    H5           30000 Fell   1814   44.2
##  9 Aguada                398 Valid    L6            1620 Fell   1930  -31.6
## 10 Aguila Blanca         417 Valid    L             1440 Fell   1920  -30.9
##     reclong GeoLocation          colorclass
##       <dbl> <chr>                <chr>     
##  1    6.08  (50.775, 6.08333)    Stony     
##  2   10.2   (56.18333, 10.23333) Stony     
##  3 -113     (54.21667, -113.0)   Stony     
##  4  -99.9   (16.88333, -99.9)    <NA>      
##  5  -65.0   (-33.16667, -64.95)  Stony     
##  6   71.8   (32.1, 71.8)         Stony     
##  7   95.2   (44.83333, 95.16667) Stony     
##  8    0.617 (44.21667, 0.61667)  Stony     
##  9  -65.2   (-31.6, -65.23333)   Stony     
## 10  -64.6   (-30.86667, -64.55)  Stony     
## # ... with 45,706 more rows
…
